{
  "interfaces": {
    "GigabitEthernet0/0": {
      "duplex_code": "auto",
      "port_speed": "a-100",
      "status": "connected",
      "type": "10/100/1000BaseTX",
      "vlan": "1"
    },
    "GigabitEthernet0/3": {
      "duplex_code": "ato",
      "port_speed": "a-100",
      "status": "connected",
      "type": "10/100/1000BaseTX",
      "vlan": "2"
    },
    "GigabitEthernet0/1": {
      "duplex_code": "auto",
      "port_speed": "a-100",
      "status": "connected",
      "type": "10/100/1000BaseTX",
      "vlan": "1"
    },
    "GigabitEthernet0/2": {
      "duplex_code": "auto",
      "port_speed": "a-100",
      "status": "connected",
      "type": "10/100/1000BaseTX",
      "vlan": "10"
    }
  }
}
